[
  {
    "id": 1,
    "token": "c4116d9d-6cd7-4a3d-abcf-b98c7f6fcb68",
    "project": "VIVO PROTEGE",
    "plataform": "ANDROID",
    "carrier": "vivo",
    "language_default": "pt",
    "providers": ["SMS Market", "Twilio"],
    "phraseologies": {
      "es":"#PINCODE# es su codigo de login de #PROJECT#",
      "en":"#PINCODE# is your #PROJECT# verification code",
      "hi":"",
      "ar":"",
      "pt":"#PINCODE# e seu codigo de verificacao do #PROJECT#",
      "bn":"",
      "ru":"",
      "ja":"",
      "pa":"",
      "de":"",
      "jv":"",
      "zh":"",
      "ms":"",
      "te":"",
      "vi":"",
      "ko":"",
      "fr":"",
      "mr":"",
      "ta":"",
      "ur":""
    }
  },
  {
    "id": 2,
    "token": "def2d8d3-9fd2-441c-be1a-999b068fa523",
    "project": "VIVO PROTEGE",
    "plataform": "iOS",
    "carrier": "vivo",
    "language_default": "pt",
    "providers": ["SMS Market", "Twilio"],
    "phraseologies": {
      "es":"#PINCODE# es su codigo de login de #PROJECT#",
      "en":"#PINCODE# is your #PROJECT# verification code",
      "hi":"",
      "ar":"",
      "pt":"#PINCODE# e seu codigo de verificacao do #PROJECT#",
      "bn":"",
      "ru":"",
      "ja":"",
      "pa":"",
      "de":"",
      "jv":"",
      "zh":"",
      "ms":"",
      "te":"",
      "vi":"",
      "ko":"",
      "fr":"",
      "mr":"",
      "ta":"",
      "ur":""
    }
  },
  {
    "id": 3,
    "token": "a2892ce5-f0b9-4a6f-921e-e1f344d65952",
    "project": "OI SEGURANÇA",
    "plataform": "ANDROID",
    "carrier": "oi",
    "language_default": "pt",
    "providers": ["SMS Market", "Twilio"],
    "phraseologies": {
      "es":"#PINCODE# es su codigo de login de #PROJECT#",
      "en":"#PINCODE# is your #PROJECT# verification code",
      "hi":"",
      "ar":"",
      "pt":"#PINCODE# e seu codigo de verificacao do #PROJECT#",
      "bn":"",
      "ru":"",
      "ja":"",
      "pa":"",
      "de":"",
      "jv":"",
      "zh":"",
      "ms":"",
      "te":"",
      "vi":"",
      "ko":"",
      "fr":"",
      "mr":"",
      "ta":"",
      "ur":""
    }
  },
  {
    "id": 4,
    "token": "b4c006bd-2693-40a1-a71e-e8e11370e0d0",
    "project": "OI SEGURANÇA",
    "plataform": "iOS",
    "carrier": "oi",
    "language_default": "pt",
    "providers": ["SMS Market", "Twilio"],
    "phraseologies": {
      "es":"#PINCODE# es su codigo de login de #PROJECT#",
      "en":"#PINCODE# is your #PROJECT# verification code",
      "hi":"",
      "ar":"",
      "pt":"#PINCODE# e seu codigo de verificacao do #PROJECT#",
      "bn":"",
      "ru":"",
      "ja":"",
      "pa":"",
      "de":"",
      "jv":"",
      "zh":"",
      "ms":"",
      "te":"",
      "vi":"",
      "ko":"",
      "fr":"",
      "mr":"",
      "ta":"",
      "ur":""
    }
  },
  {
    "id": 5,
    "token": "68af434e-3d08-46d4-b031-d56cbb31fde1",
    "project": "TIM PROTECT",
    "plataform": "ANDROID",
    "carrier": "tim",
    "language_default": "pt",
    "providers": ["SMS Market", "Twilio"],
    "phraseologies": {
      "es":"#PINCODE# es su codigo de login de #PROJECT#",
      "en":"#PINCODE# is your #PROJECT# verification code",
      "hi":"",
      "ar":"",
      "pt":"#PINCODE# e seu codigo de verificacao do #PROJECT#",
      "bn":"",
      "ru":"",
      "ja":"",
      "pa":"",
      "de":"",
      "jv":"",
      "zh":"",
      "ms":"",
      "te":"",
      "vi":"",
      "ko":"",
      "fr":"",
      "mr":"",
      "ta":"",
      "ur":""
    }
  },
  {
    "id": 6,
    "token": "0e7daf57-d125-4eec-af9a-dcc8fbe9a737",
    "project": "TIM PROTECT",
    "plataform": "iOS",
    "carrier": "tim",
    "language_default": "pt",
    "providers": ["SMS Market", "Twilio"],
    "phraseologies": {
      "es":"#PINCODE# es su codigo de login de #PROJECT#",
      "en":"#PINCODE# is your #PROJECT# verification code",
      "hi":"",
      "ar":"",
      "pt":"#PINCODE# e seu codigo de verificacao do #PROJECT#",
      "bn":"",
      "ru":"",
      "ja":"",
      "pa":"",
      "de":"",
      "jv":"",
      "zh":"",
      "ms":"",
      "te":"",
      "vi":"",
      "ko":"",
      "fr":"",
      "mr":"",
      "ta":"",
      "ur":""
    }
  },
  {
    "id": 7,
    "token": "f0db260c-0fff-4c33-9d76-d51d7cd553a2",
    "project": "HERO",
    "plataform": "ANDROID",
    "carrier": "hero",
    "language_default": "pt",
    "providers": ["SMS Market", "Twilio"],
    "phraseologies": {
      "es":"#PINCODE# es su codigo de login de #PROJECT#",
      "en":"#PINCODE# is your #PROJECT# verification code",
      "hi":"",
      "ar":"",
      "pt":"#PINCODE# e seu codigo de verificacao do #PROJECT#",
      "bn":"",
      "ru":"",
      "ja":"",
      "pa":"",
      "de":"",
      "jv":"",
      "zh":"",
      "ms":"",
      "te":"",
      "vi":"",
      "ko":"",
      "fr":"",
      "mr":"",
      "ta":"",
      "ur":""
    }
  },
  {
    "id": 8,
    "token": "6e844b34-8ab3-4792-a18e-3a00ac0179d1",
    "project": "HERO",
    "plataform": "iOS",
    "carrier": "hero",
    "language_default": "pt",
    "providers": ["SMS Market", "Twilio"],
    "phraseologies": {
      "es":"#PINCODE# es su codigo de login de #PROJECT#",
      "en":"#PINCODE# is your #PROJECT# verification code",
      "hi":"",
      "ar":"",
      "pt":"#PINCODE# e seu codigo de verificacao do #PROJECT#",
      "bn":"",
      "ru":"",
      "ja":"",
      "pa":"",
      "de":"",
      "jv":"",
      "zh":"",
      "ms":"",
      "te":"",
      "vi":"",
      "ko":"",
      "fr":"",
      "mr":"",
      "ta":"",
      "ur":""
    }
  },
  {
    "id": 9,
    "token": "d7219664-d1b3-46d8-a4d7-121291cb8605",
    "project": "VIVO SYNC",
    "plataform": "ANDROID",
    "carrier": "vivo",
    "language_default": "pt",
    "providers": ["SMS Market", "Twilio"],
    "phraseologies": {
      "es":"#PINCODE# es su codigo de login de #PROJECT#",
      "en":"#PINCODE# is your #PROJECT# verification code",
      "hi":"",
      "ar":"",
      "pt":"#PINCODE# e seu codigo de verificacao do #PROJECT#",
      "bn":"",
      "ru":"",
      "ja":"",
      "pa":"",
      "de":"",
      "jv":"",
      "zh":"",
      "ms":"",
      "te":"",
      "vi":"",
      "ko":"",
      "fr":"",
      "mr":"",
      "ta":"",
      "ur":""
    }
  },
  {
    "id": 10,
    "token": "3533e0c5-4863-4d2d-b065-52f93fd3312c",
    "project": "VIVO SYNC",
    "plataform": "iOS",
    "carrier": "vivo",
    "language_default": "pt",
    "providers": ["SMS Market", "Twilio"],
    "phraseologies": {
      "es":"#PINCODE# es su codigo de login de #PROJECT#",
      "en":"#PINCODE# is your #PROJECT# verification code",
      "hi":"",
      "ar":"",
      "pt":"#PINCODE# e seu codigo de verificacao do #PROJECT#",
      "bn":"",
      "ru":"",
      "ja":"",
      "pa":"",
      "de":"",
      "jv":"",
      "zh":"",
      "ms":"",
      "te":"",
      "vi":"",
      "ko":"",
      "fr":"",
      "mr":"",
      "ta":"",
      "ur":""
    }
  },
  {
    "id": 11,
    "token": "adcbb495-a173-4a80-9b2a-6c6d9af60142",
    "project": "VIVO SYNC",
    "plataform": "Web",
    "carrier": "vivo",
    "language_default": "pt",
    "providers": ["SMS Market", "Twilio"],
    "phraseologies": {
      "es":"#PINCODE# es su codigo de login de #PROJECT#",
      "en":"#PINCODE# is your #PROJECT# verification code",
      "hi":"",
      "ar":"",
      "pt":"#PINCODE# e seu codigo de verificacao do #PROJECT#",
      "bn":"",
      "ru":"",
      "ja":"",
      "pa":"",
      "de":"",
      "jv":"",
      "zh":"",
      "ms":"",
      "te":"",
      "vi":"",
      "ko":"",
      "fr":"",
      "mr":"",
      "ta":"",
      "ur":""
    }
  },
  {
    "id": 12,
    "token": "c25fb754-7ccb-4ea5-8b26-56b4a69b53cf",
    "project": "TIM PROTECT BACKUP",
    "plataform": "ANDROID",
    "carrier": "tim",
    "language_default": "pt",
    "providers": ["SMS Market", "Twilio"],
    "phraseologies": {
      "es":"#PINCODE# es su codigo de login de #PROJECT#",
      "en":"#PINCODE# is your #PROJECT# verification code",
      "hi":"",
      "ar":"",
      "pt":"#PINCODE# e seu codigo de verificacao do #PROJECT#",
      "bn":"",
      "ru":"",
      "ja":"",
      "pa":"",
      "de":"",
      "jv":"",
      "zh":"",
      "ms":"",
      "te":"",
      "vi":"",
      "ko":"",
      "fr":"",
      "mr":"",
      "ta":"",
      "ur":""
    }
  },
  {
    "id": 13,
    "token": "dcef634e-8783-413c-aec1-5e63fbf682cc",
    "project": "TIM PROTECT BACKUP",
    "plataform": "iOS",
    "carrier": "tim",
    "language_default": "pt",
    "providers": ["SMS Market", "Twilio"],
    "phraseologies": {
      "es":"#PINCODE# es su codigo de login de #PROJECT#",
      "en":"#PINCODE# is your #PROJECT# verification code",
      "hi":"",
      "ar":"",
      "pt":"#PINCODE# e seu codigo de verificacao do #PROJECT#",
      "bn":"",
      "ru":"",
      "ja":"",
      "pa":"",
      "de":"",
      "jv":"",
      "zh":"",
      "ms":"",
      "te":"",
      "vi":"",
      "ko":"",
      "fr":"",
      "mr":"",
      "ta":"",
      "ur":""
    }
  },
  {
    "id": 14,
    "token": "46894718-1d64-432e-83e3-6ed805421e50",
    "project": "TIM PROTECT BACKUP",
    "plataform": "Web",
    "carrier": "tim",
    "language_default": "pt",
    "providers": ["SMS Market", "Twilio"],
    "phraseologies": {
      "es":"#PINCODE# es su codigo de login de #PROJECT#",
      "en":"#PINCODE# is your #PROJECT# verification code",
      "hi":"",
      "ar":"",
      "pt":"#PINCODE# e seu codigo de verificacao do #PROJECT#",
      "bn":"",
      "ru":"",
      "ja":"",
      "pa":"",
      "de":"",
      "jv":"",
      "zh":"",
      "ms":"",
      "te":"",
      "vi":"",
      "ko":"",
      "fr":"",
      "mr":"",
      "ta":"",
      "ur":""
    }
  },
  {
    "id": 15,
    "token": "c0f499d5-89fc-4657-aa53-ba27ec725109",
    "project": "OI PROTEÇÃO SYNC",
    "plataform": "ANDROID",
    "carrier": "oi",
    "language_default": "pt",
    "providers": ["SMS Market", "Twilio"],
    "phraseologies": {
      "es":"#PINCODE# es su codigo de login de #PROJECT#",
      "en":"#PINCODE# is your #PROJECT# verification code",
      "hi":"",
      "ar":"",
      "pt":"#PINCODE# e seu codigo de verificacao do #PROJECT#",
      "bn":"",
      "ru":"",
      "ja":"",
      "pa":"",
      "de":"",
      "jv":"",
      "zh":"",
      "ms":"",
      "te":"",
      "vi":"",
      "ko":"",
      "fr":"",
      "mr":"",
      "ta":"",
      "ur":""
    }
  },
  {
    "id": 16,
    "token": "f2ff170a-3ace-4782-8844-5e2afcd8714d",
    "project": "OI PROTEÇÃO SYNC",
    "plataform": "iOS",
    "carrier": "oi",
    "language_default": "pt",
    "providers": ["SMS Market", "Twilio"],
    "phraseologies": {
      "es":"#PINCODE# es su codigo de login de #PROJECT#",
      "en":"#PINCODE# is your #PROJECT# verification code",
      "hi":"",
      "ar":"",
      "pt":"#PINCODE# e seu codigo de verificacao do #PROJECT#",
      "bn":"",
      "ru":"",
      "ja":"",
      "pa":"",
      "de":"",
      "jv":"",
      "zh":"",
      "ms":"",
      "te":"",
      "vi":"",
      "ko":"",
      "fr":"",
      "mr":"",
      "ta":"",
      "ur":""
    }
  },
  {
    "id": 17,
    "token": "e46336d2-3957-48f7-b05d-e48cac673054",
    "project": "OI PROTEÇÃO SYNC",
    "plataform": "Web",
    "carrier": "oi",
    "language_default": "pt",
    "providers": ["SMS Market", "Twilio"],
    "phraseologies": {
      "es":"#PINCODE# es su codigo de login de #PROJECT#",
      "en":"#PINCODE# is your #PROJECT# verification code",
      "hi":"",
      "ar":"",
      "pt":"#PINCODE# e seu codigo de verificacao do #PROJECT#",
      "bn":"",
      "ru":"",
      "ja":"",
      "pa":"",
      "de":"",
      "jv":"",
      "zh":"",
      "ms":"",
      "te":"",
      "vi":"",
      "ko":"",
      "fr":"",
      "mr":"",
      "ta":"",
      "ur":""
    }
  },
  {
    "id": 18,
    "token": "f48de281-5967-4699-8886-b446b21ec2f3",
    "project": "CLOUD BY HERO",
    "plataform": "ANDROID",
    "carrier": "hero",
    "language_default": "pt",
    "providers": ["SMS Market", "Twilio"],
    "phraseologies": {
      "es":"#PINCODE# es su codigo de login de #PROJECT#",
      "en":"#PINCODE# is your #PROJECT# verification code",
      "hi":"",
      "ar":"",
      "pt":"#PINCODE# e seu codigo de verificacao do #PROJECT#",
      "bn":"",
      "ru":"",
      "ja":"",
      "pa":"",
      "de":"",
      "jv":"",
      "zh":"",
      "ms":"",
      "te":"",
      "vi":"",
      "ko":"",
      "fr":"",
      "mr":"",
      "ta":"",
      "ur":""
    }
  },
  {
    "id": 19,
    "token": "0b4f070d-3750-4944-9e7f-c9bbd62120ef",
    "project": "CLOUD BY HERO",
    "plataform": "iOS",
    "carrier": "hero",
    "language_default": "pt",
    "providers": ["SMS Market", "Twilio"],
    "phraseologies": {
      "es":"#PINCODE# es su codigo de login de #PROJECT#",
      "en":"#PINCODE# is your #PROJECT# verification code",
      "hi":"",
      "ar":"",
      "pt":"#PINCODE# e seu codigo de verificacao do #PROJECT#",
      "bn":"",
      "ru":"",
      "ja":"",
      "pa":"",
      "de":"",
      "jv":"",
      "zh":"",
      "ms":"",
      "te":"",
      "vi":"",
      "ko":"",
      "fr":"",
      "mr":"",
      "ta":"",
      "ur":""
    }
  },
  {
    "id": 20,
    "token": "8afffd27-2adf-483e-8222-a49cd0cdfb8f",
    "project": "CLOUD BY HERO",
    "plataform": "Web",
    "carrier": "hero",
    "language_default": "pt",
    "providers": ["SMS Market", "Twilio"],
    "phraseologies": {
      "es":"#PINCODE# es su codigo de login de #PROJECT#",
      "en":"#PINCODE# is your #PROJECT# verification code",
      "hi":"",
      "ar":"",
      "pt":"#PINCODE# e seu codigo de verificacao do #PROJECT#",
      "bn":"",
      "ru":"",
      "ja":"",
      "pa":"",
      "de":"",
      "jv":"",
      "zh":"",
      "ms":"",
      "te":"",
      "vi":"",
      "ko":"",
      "fr":"",
      "mr":"",
      "ta":"",
      "ur":""
    }
  },
  {
    "id": 21,
    "token": "d5db603c-9aaf-47af-92f3-368464e152a1",
    "project": "VIVO PROTEGE",
    "plataform": "Web",
    "carrier": "vivo",
    "language_default": "pt",
    "providers": ["SMS Market", "Twilio"],
    "phraseologies": {
      "es":"#PINCODE# es su codigo de login de #PROJECT#",
      "en":"#PINCODE# is your #PROJECT# verification code",
      "hi":"",
      "ar":"",
      "pt":"#PINCODE# e seu codigo de verificacao do #PROJECT#",
      "bn":"",
      "ru":"",
      "ja":"",
      "pa":"",
      "de":"",
      "jv":"",
      "zh":"",
      "ms":"",
      "te":"",
      "vi":"",
      "ko":"",
      "fr":"",
      "mr":"",
      "ta":"",
      "ur":""
    }
  },
  {
    "id": 22,
    "token": "d5695a44-a96c-4b01-b286-044e03613930",
    "project": "TEST INFOBIP",
    "plataform": "Web",
    "carrier": "vivo",
    "language_default": "pt",
    "providers": ["Infobip", "Twilio", "SMS Market"],
    "phraseologies": {
      "es":"#PINCODE# es su codigo de login de #PROJECT#",
      "en":"#PINCODE# is your #PROJECT# verification code",
      "hi":"",
      "ar":"",
      "pt":"#PINCODE# e seu codigo de verificacao do #PROJECT#",
      "bn":"",
      "ru":"",
      "ja":"",
      "pa":"",
      "de":"",
      "jv":"",
      "zh":"",
      "ms":"",
      "te":"",
      "vi":"",
      "ko":"",
      "fr":"",
      "mr":"",
      "ta":"",
      "ur":""
    }
  }
]